{
  "main": {
    "id": "3e24d5ba1bde2f03",
    "type": "split",
    "children": [
      {
        "id": "7a9de0e21104ae9e",
        "type": "tabs",
        "children": [
          {
            "id": "3ed0b5296cc5dc84",
            "type": "leaf",
            "state": {
              "type": "markdown",
              "state": {
                "file": "README.md",
                "mode": "source",
                "source": false
              }
            }
          }
        ]
      }
    ],
    "direction": "vertical"
  },
  "left": {
    "id": "853f76a1586b448c",
    "type": "split",
    "children": [
      {
        "id": "4911fffb4cee4003",
        "type": "tabs",
        "dimension": 68.71794871794872,
        "children": [
          {
            "id": "4840f68910c21ca6",
            "type": "leaf",
            "state": {
              "type": "file-explorer",
              "state": {
                "sortOrder": "alphabetical"
              }
            }
          },
          {
            "id": "3561c59d2f3a2da5",
            "type": "leaf",
            "state": {
              "type": "search",
              "state": {
                "query": "",
                "matchingCase": false,
                "explainSearch": false,
                "collapseAll": false,
                "extraContext": false,
                "sortOrder": "alphabetical"
              }
            }
          },
          {
            "id": "3741acbbcc32432a",
            "type": "leaf",
            "state": {
              "type": "starred",
              "state": {}
            }
          },
          {
            "id": "e2fa1b892a4018f6",
            "type": "leaf",
            "state": {
              "type": "bookmarks",
              "state": {}
            }
          }
        ]
      },
      {
        "id": "6551ca8c45ad1e6b",
        "type": "tabs",
        "dimension": 31.28205128205128,
        "children": [
          {
            "id": "b62a7f958a6b12cd",
            "type": "leaf",
            "pinned": true,
            "state": {
              "type": "graph",
              "state": {},
              "pinned": true
            }
          }
        ]
      }
    ],
    "direction": "horizontal",
    "width": 218.5
  },
  "right": {
    "id": "023d1a17e1b83a7b",
    "type": "split",
    "children": [
      {
        "id": "07369ae6c49bb1d3",
        "type": "tabs",
        "children": [
          {
            "id": "b12bd30cff448dca",
            "type": "leaf",
            "state": {
              "type": "backlink",
              "state": {
                "file": "README.md",
                "collapseAll": false,
                "extraContext": false,
                "sortOrder": "alphabetical",
                "showSearch": false,
                "searchQuery": "",
                "backlinkCollapsed": false,
                "unlinkedCollapsed": true
              }
            }
          },
          {
            "id": "86e1ce0f81455a64",
            "type": "leaf",
            "state": {
              "type": "outgoing-link",
              "state": {
                "file": "README.md",
                "linksCollapsed": false,
                "unlinkedCollapsed": true
              }
            }
          },
          {
            "id": "64d72c73258e8e1a",
            "type": "leaf",
            "state": {
              "type": "tag",
              "state": {
                "sortOrder": "frequency",
                "useHierarchy": true
              }
            }
          },
          {
            "id": "b600f77cfbc9f9cd",
            "type": "leaf",
            "state": {
              "type": "outline",
              "state": {
                "file": "README.md"
              }
            }
          },
          {
            "id": "aeec12c96b6810af",
            "type": "leaf",
            "state": {
              "type": "advanced-tables-toolbar",
              "state": {}
            }
          },
          {
            "id": "111fda663d873bf7",
            "type": "leaf",
            "state": {
              "type": "git-view",
              "state": {}
            }
          }
        ]
      }
    ],
    "direction": "horizontal",
    "width": 271.5
  },
  "left-ribbon": {
    "hiddenItems": {
      "zk-prefixer:Create new unique note": false,
      "switcher:Open quick switcher": false,
      "graph:Open graph view": false,
      "canvas:Create new canvas": false,
      "templates:Insert template": false,
      "command-palette:Open command palette": false,
      "audio-recorder:Start/stop recording": false,
      "markdown-table-editor:Open Markdown Table Editor": false,
      "slide-note:Slide Note Block Generator": false,
      "templater-obsidian:Templater": false,
      "webpage-html-export:Export Vault to HTML": false,
      "table-editor-obsidian:Advanced Tables Toolbar": false,
      "obsidian-excalidraw-plugin:Create new drawing": false,
      "obsidian-git:Open Git source control": false
    }
  },
  "active": "4840f68910c21ca6",
  "lastOpenFiles": [
    "README.md"
  ]
}