{
  "settings": {
    "migrated": 6,
    "iconPacksPath": "docs/attachments/icons",
    "fontSize": 19,
    "iconColor": "#0f0a0a",
    "recentlyUsedIcons": [
      "IbDocumentText",
      "RiAttachment2",
      "RiVipDiamondFill",
      "RiDoubleQuotesL",
      "FasBook"
    ],
    "recentlyUsedIconsSize": 5,
    "rules": [],
    "extraMargin": {
      "top": 0,
      "right": 2,
      "bottom": 0,
      "left": 2
    },
    "emojiStyle": "native",
    "iconInTabsEnabled": false,
    "iconsBackgroundCheckEnabled": false,
    "iconInTitleEnabled": false,
    "iconInFrontmatterEnabled": false,
    "iconsInNotesEnabled": true,
    "iconIdentifier": ":",
    "iconsInLinksEnabled": true,
    "iconInTitlePosition": "above",
    "iconInFrontmatterFieldName": "icon",
    "iconColorInFrontmatterFieldName": "iconColor",
    "lucideIconPackType": "native",
    "debugMode": false
  },
  "docs": "IbDocumentText",
  "docs/attachments": "RiAttachment2",
  "docs/references": "RiDoubleQuotesL"
}